{
    "swagger": "2.0",
    "info": {
        "title": "L5 Swagger API",
        "description": "L5 Swagger API description",
        "contact": {
            "email": "ion.caimacan@gnmai.com"
        },
        "version": "1.0.0"
    },
    "host": "ion.localhost",
    "basePath": "/api",
    "schemes": [
        "http",
        "https"
    ],
    "paths": {
        "/login": {
            "post": {
                "tags": [
                    "Authentification"
                ],
                "summary": "Authentification",
                "description": "Authentification is system",
                "operationId": "authentification",
                "parameters": [
                    {
                        "name": "authentification",
                        "in": "body",
                        "description": "Authentification",
                        "required": true,
                        "schema": {
                            "properties": {
                                "email": {
                                    "type": "string",
                                    "example": "ivan4ever92@gmail.com"
                                },
                                "password": {
                                    "type": "string",
                                    "example": "qazwsx"
                                }
                            },
                            "type": "object"
                        },
                        "type": "string"
                    }
                ],
                "responses": {
                    "200": {
                        "description": "successful operation"
                    },
                    "400": {
                        "description": "Bad request"
                    }
                },
                "security": [
                    {
                        "api_key_security_example": []
                    }
                ]
            }
        },
        "/register": {
            "post": {
                "tags": [
                    "Authentification"
                ],
                "summary": "Register",
                "description": "Registration is system",
                "operationId": "register",
                "parameters": [
                    {
                        "name": "register",
                        "in": "body",
                        "description": "Register",
                        "required": true,
                        "schema": {
                            "properties": {
                                "name": {
                                    "type": "string",
                                    "example": "test"
                                },
                                "email": {
                                    "type": "string",
                                    "example": "user@mail.com"
                                },
                                "password": {
                                    "type": "string",
                                    "example": "password"
                                },
                                "password_confirmation": {
                                    "type": "string",
                                    "example": "password"
                                }
                            },
                            "type": "object"
                        },
                        "type": "string"
                    }
                ],
                "responses": {
                    "200": {
                        "description": "successful operation"
                    },
                    "400": {
                        "description": "Bad request"
                    }
                },
                "security": [
                    {
                        "api_key_security_example": []
                    }
                ]
            }
        },
        "/details": {
            "post": {
                "tags": [
                    "Details User"
                ],
                "summary": "Details",
                "description": "Get details user",
                "operationId": "getDetailsUser",
                "responses": {
                    "200": {
                        "description": "successful operation"
                    },
                    "400": {
                        "description": "Bad request"
                    }
                },
                "security": [
                    {
                        "default": []
                    }
                ]
            }
        }
    },
    "definitions": {
        "User": {
            "required": [
                "name",
                "email"
            ],
            "properties": {
                "name": {
                    "description": "User Name",
                    "type": "string",
                    "format": "byte"
                },
                "email": {
                    "description": "Email",
                    "type": "string",
                    "format": "byte"
                },
                "password": {
                    "description": "Password",
                    "type": "string",
                    "format": "byte"
                }
            },
            "type": "object",
            "xml": {
                "name": "User"
            }
        }
    },
    "securityDefinitions": {
        "default": {
            "type": "apiKey",
            "name": "Authorization",
            "in": "header"
        }
    }
}